[
  {
    "id": "1001",
    "typ": "WMS",
    "name" : "Geobasiskarten (HamburgDE)",
    "url" : "https://geodienste.hamburg.de/HH_WMS_HamburgDE",
    "format": "image/png",
    "version": "1.3.0",
    "layers" : "Geobasiskarten_HHde",
    "transparent": true,
    "singleTile": false,
    "tilesize" : 512,
    "gutter": 0,
    "minScale": 1,
    "maxScale": 200
  },
  {
    "id": "1002",
    "name": "Krankenhäuser",
    "url": "https://geodienste.hamburg.de/HH_WMS_Krankenhaeuser",
    "typ": "WMS",
    "layers": "krankenhaeuser",
    "format": "image/png",
    "version": "1.3.0",
    "singleTile": true,
    "transparent": true,
    "transparency": 0,
    "urlIsVisible": true,
    "tilesize": 512
  },
  {
    "id": "2001",
    "typ": "GeoJSON",
    "name": "Landesgrenze Hamburg",
    "url": "https://geodienste.hamburg.de/lgv-config/landesgrenze_hh.json"
  },
  {
    "id": "3001",
    "name": "Bauwerke",
    "url": "https://geodienste.hamburg.de/HH_WFS_Geotourismus",
    "typ": "WFS",
    "featureType": "bauwerke",
    "outputFormat": "XML",
    "version": "1.1.0",
    "featureNS": "http://www.deegree.org/app"
  },
  {
    "id": "4001",
    "name": "Gelaende",
    "url": "https://daten-hamburg.de/gdi3d/datasource-data/Gelaende",
    "typ": "Terrain3D",
    "cesiumTerrainProviderOptions": {
      "requestVertexNormals": true
    }
  },
  {
    "id": "4002",
    "name": "Gebäude LoD2",
    "url": "https://daten-hamburg.de/gdi3d/datasource-data/LoD2",
    "typ": "TileSet3D",
    "styleId": "3DTileSetStyle",
    "cesium3DTilesetOptions": {
      "maximumScreenSpaceError": 6
    }
  },
  {
    "id": "4003",
    "name": "EntitiesLayer",
    "typ": "Entities3D",
    "entities": [
      {
        "url": "https://daten-hamburg.de/gdi3d/datasource-data/Simple_Building.glb",
        "attributes": {
          "name": "einfaches Haus in Planten und Blomen"
        },
        "latitude": 53.5631,
        "longitude": 9.9800,
        "height": 16,
        "heading": 0,
        "pitch": 0,
        "roll": 0,
        "scale": 5,
        "allowPicking": true,
        "show": true
      },
      {
        "url": "https://daten-hamburg.de/gdi3d/datasource-data/Simple_Building.glb",
        "attributes": {
          "name": "einfaches Haus im See"
        },
        "latitude": 53.5622,
        "longitude": 9.9808,
        "height": 16,
        "heading": 0,
        "pitch": 0,
        "roll": 0,
        "scale": 2,
        "allowPicking": true,
        "show": true
      }
    ]
  },
  {
    "id": "5001",
    "name": "Schulen",
    "url": "https://api.hamburg.de/datasets/v1/schulen",
    "collection": "staatliche_schulen",
    "typ": "OAF",
    "crs": "http://www.opengis.net/def/crs/EPSG/0/25832",
    "bboxCrs": "http://www.opengis.net/def/crs/EPSG/0/25832"
  },
  {
    "id": "8712",
    "name": "de.hh.up:staatliche schulen",
    "url": "https://geodienste.hamburg.de/HH_WFS_Schulen",
    "typ": "WFS",
    "featureType": "staatliche_schulen",
    "outputFormat": "XML",
    "version": "1.1.0",
    "featureNS": "https://registry.gdi-de.org/id/de.hh.up"
  },
  {
    "id" : "1534",
    "name" : "de.hh.up:verzeichnis oeffentlicher gruenanlagen",
    "url" : "https://geodienste.hamburg.de/HH_WFS_Gruenplan",
    "typ" : "WFS",
    "featureType" : "verzeichnis_oeffentlicher_gruenanlagen",
    "outputFormat" : "XML",
    "version" : "1.1.0",
    "featureNS" : "https://registry.gdi-de.org/id/de.hh.up"
  },
  {
    "id" : "5097",
    "name" : "de.hh.up:strassenbaumkataster hpa",
    "url" : "https://geodienste.hamburg.de/HH_WFS_Strassenbaumkataster",
    "typ" : "WFS",
    "featureType" : "strassenbaumkataster_hpa",
    "outputFormat" : "XML",
    "version" : "1.1.0",
    "featureNS" : "https://registry.gdi-de.org/id/de.hh.up"
  },
  {
    "id": "6001",
    "name": "ArcGIS VectorTile",
    "shortname": "VectorTile",
    "typ": "VectorTile",
    "visibility": false,
    "preview": {
      "src": "./resources/vectorTile.png"
    },
    "gfiAttributes": "showAll",
    "url": "https://test.geoportal-hamburg.de/vt/esri/tile/{z}/{y}/{x}.pbf",
    "epsg": "EPSG:25832",
    "extent": [
      441336.2209999999,
      5915995,
      594002,
      5986767.56699999981
    ],
    "origin": [
      -9497963.94293634221,
      9997963.94293634221
    ],
    "resolutions": [
      39054.5466520950868,
      19527.2733260475434,
      9763.63666302377169,
      4881.81833151188584,
      2440.90916575594292,
      1220.45458287797146,
      610.227291438985731,
      305.113645719492865,
      152.556822859746433,
      76.2784114298732163,
      38.1392057149366082,
      19.0696028574683041,
      9.534801428734152,
      4.767400714367076,
      2.383700357183538,
      1.191850178591769
    ],
    "tileSize": 512,
    "vtStyles": [
      {
        "id": "VectorTile_STYLE",
        "name": "Test",
        "url": "https://test.geoportal-hamburg.de/vt/esri/resources/styles/root.json",
        "defaultStyle": true
      }
    ]
  },
  {
    "id": "7001",
    "name": "TopPlusOpen",
    "capabilitiesUrl": "https://sgx.geodatenzentrum.de/wmts_topplus_open/1.0.0/WMTSCapabilities.xml",
    "optionsFromCapabilities": true,
    "typ": "WMTS",
    "layers": "web"
  },
  {
    "id": "7002",
    "name": "EOC Basemap",
    "capabilitiesUrl": "https://tiles.geoservice.dlr.de/service/wmts?SERVICE=WMTS&REQUEST=GetCapabilities",
    "typ": "WMTS",
    "optionsFromCapabilities": true,
    "layers": "eoc:basemap"
  },
  {
    "id": "7003",
    "name": "Geoland Basemap",
    "urls": [
      "https://maps1.wien.gv.at/basemap/geolandbasemap/{Style}/{TileMatrixSet}/{TileMatrix}/{TileRow}/{TileCol}.png",
      "https://maps2.wien.gv.at/basemap/geolandbasemap/{Style}/{TileMatrixSet}/{TileMatrix}/{TileRow}/{TileCol}.png",
      "https://maps3.wien.gv.at/basemap/geolandbasemap/{Style}/{TileMatrixSet}/{TileMatrix}/{TileRow}/{TileCol}.png",
      "https://maps4.wien.gv.at/basemap/geolandbasemap/{Style}/{TileMatrixSet}/{TileMatrix}/{TileRow}/{TileCol}.png",
      "https://maps.wien.gv.at/basemap/geolandbasemap/{Style}/{TileMatrixSet}/{TileMatrix}/{TileRow}/{TileCol}.png"
    ],
    "typ": "WMTS",
    "layer": "geolandbasemap",
    "version": "1.0.0",
    "format": "image/png",
    "style": "normal",
    "transparent": false,
    "tileSize": "256",
    "minScale": "0",
    "maxScale": "2500000",
    "tileMatrixSet": "google3857",
    "matrixSizes": [
      [
        1,
        1
      ],
      [
        2,
        2
      ],
      [
        4,
        4
      ],
      [
        8,
        8
      ],
      [
        16,
        16
      ],
      [
        32,
        32
      ],
      [
        64,
        64
      ],
      [
        128,
        128
      ],
      [
        256,
        256
      ],
      [
        512,
        512
      ],
      [
        1024,
        1024
      ],
      [
        2048,
        2048
      ],
      [
        4096,
        4096
      ],
      [
        8192,
        8192
      ],
      [
        16384,
        16384
      ],
      [
        32768,
        32768
      ],
      [
        65536,
        65536
      ],
      [
        131072,
        131072
      ],
      [
        262144,
        262144
      ],
      [
        524288,
        524288
      ]
    ],
    "coordinateSystem": "EPSG:3857",
    "layerAttribution": "nicht vorhanden",
    "legend": false,
    "cache": true,
    "wrapX": true,
    "origin": [
      -20037508.3428,
      20037508.3428
    ],
    "scales": [
      559082264.029,
      279541132.015,
      139770566.007,
      69885283.0036,
      34942641.5018,
      17471320.7509,
      8735660.37545,
      4367830.18773,
      2183915.09386,
      1091957.54693,
      45978.773466,
      272989.386733,
      136494.693366,
      68247.3466832,
      34123.6733416,
      17061.8366708,
      8530.91833540,
      4265.45916770,
      2132.72958385,
      1066.36479193
    ],
    "resLength": "20",
    "requestEncoding": "REST"
  }
]
